…
<img src="man/figures/README-plot-power-curves-1.png" width="100%" />

## Power curves and KS-distance

There is a loose “rule-of-thumb” relationship between
Sensitivity/Specificity and KS-distance, and of course, KS is related to
effect size. So we can visualize this relationship also via a standard
power curve:

``` r
ks_tables <- ks_power_table()
ks_tables
#> $n
#> # A tibble: 31 × 10
#>    SS       KS `power=0.60` `power=0.65` `power=0.70` `power=0.75` `power=0.80` `power=0.85`
#>    <chr> <dbl>        <dbl>        <dbl>        <dbl>        <dbl>        <dbl>        <dbl>
#>  1 60/60  0.2         149.         158.         168.         178.         191.         206. 
#>  2 61/61  0.22        123.         131.         139.         147.         158.         170. 
#>  3 62/62  0.24        104.         110.         117.         124.         133.         143. 
#>  4 63/63  0.26         88.4         93.6         99.3        106.         113.         122. 
#>  5 64/64  0.28         76.4         80.8         85.7         91.2         97.4        105. 
#>  6 65/65  0.3          66.6         70.5         74.7         79.5         84.9         91.4
#>  7 66/66  0.32         58.7         62.1         65.8         69.9         74.6         80.3
#>  8 67/67  0.34         52.1         55.1         58.3         61.9         66.1         71.1
#>  9 68/68  0.36         46.5         49.2         52.1         55.3         58.9         63.4
#> 10 69/69  0.38         41.9         44.2         46.8         49.6         52.9         56.8
#> # ℹ 21 more rows
#> # ℹ 2 more variables: `power=0.90` <dbl>, `power=0.95` <dbl>
#> 
#> $power
#> # A tibble: 31 × 11
#>    SS       KS  `n=20` `n=30` `n=40` `n=50` `n=60` `n=70` `n=80` `n=90` `n=100`
#>    <chr> <dbl>   <dbl>  <dbl>  <dbl>  <dbl>  <dbl>  <dbl>  <dbl>  <dbl>   <dbl>
#>  1 60/60  0.2  0.00444 0.0129 0.0283 0.0519 0.0844  0.126  0.175  0.231   0.292
#>  2 61/61  0.22 0.00676 0.0206 0.0459 0.0841 0.135   0.198  0.270  0.347   0.426
#>  3 62/62  0.24 0.0101  0.0320 0.0715 0.130  0.205   0.292  0.385  0.479   0.569
#>  4 63/63  0.26 0.0149  0.0482 0.107  0.191  0.292   0.403  0.513  0.616   0.705
#>  5 64/64  0.28 0.0216  0.0706 0.155  0.268  0.396   0.524  0.641  0.740   0.818
#>  6 65/65  0.3  0.0307  0.101  0.215  0.358  0.508   0.644  0.755  0.840   0.900
#>  7 66/66  0.32 0.0429  0.139  0.288  0.459  0.620   0.752  0.847  0.911   0.951
#>  8 67/67  0.34 0.0591  0.188  0.372  0.563  0.724   0.840  0.914  0.956   0.979
#>  9 68/68  0.36 0.0799  0.246  0.464  0.665  0.813   0.905  0.956  0.981   0.992
#> 10 69/69  0.38 0.106   0.314  0.558  0.756  0.882   0.949  0.980  0.993   0.998
#> # ℹ 21 more rows
…
